1 10 20
100 200 125
201 210 89
900 1000 174
41082 94174 351
22925 61917 340
5808 55927 340
37729 71623 340
43115 73057 340
31571 95261 351
875 96535 351
45002 83479 351
31958 72379 340
22646 82889 351
2853 76440 340
13095 98620 351
44882 77637 351
38746 98490 351
34003 83608 351
22571 54780 340
35112 56768 340
7451 96565 351
45868 53865 340
2390 57352 340
36671 67229 340
12116 80966 351
28206 92296 351
20393 93581 351
16329 94272 351
35102 88584 351
31618 56661 340
16798 77294 351
44226 71479 340
19055 89361 351
25143 81220 351
29109 72981 340
39887 77588 351
12054 62300 340
11187 91169 351
35491 71143 340
34551 91400 351
43594 71065 340
18939 51275 324
2319 48587 324
29322 78264 351
45633 62449 340
13383 67159 340
9745 47079 324
18788 86753 351
38446 48542 314
28691 77461 351
41402 61089 340
2581 70855 340
864 70659 340
40044 60782 340
11505 70039 340
12850 80053 351
31278 79502 351
39035 54384 340
31269 97315 351
23416 46609 324
14909 77728 351
30381 73898 340
29311 80613 351
18139 99526 351
31627 83128 351
21967 78737 351
11755 54534 340
12359 64445 340
24564 61367 340
13936 69654 340
37455 49866 314
42557 68723 340
43373 92725 351
3580 61647 340
40800 94651 351
15869 53452 340
29726 67965 340
21092 85951 351
16720 59437 340
40023 99178 351
39742 49979 314
28482 90934 351
42046 92924 351
38922 90088 351
2935 49916 324
42387 74558 340
7239 96908 351
9328 49547 324
18498 84889 351
6285 70082 340
5316 63344 340
37667 93504 351
12690 63270 340
42067 83617 351
39814 94332 351
31448 97122 351
42096 61634 340
12726 77599 351
14616 87363 351
38120 85881 351
8059 76487 340
19177 52267 324
32235 85655 351
1361 68830 340
2925 70811 340
6802 82076 351
14091 79409 351
45802 81848 351
8546 95067 351
39429 55952 340
40620 47061 314
3201 72782 340
33570 65598 340
27755 67483 340
1384 70168 340
27821 83606 351
21397 79580 351
36032 88747 351
7129 77174 351
36453 74451 340
28378 97842 351
10780 98447 351
9440 57922 340
